{
    "firstName": "Michelle",
    "lastName": "Montgomery",
    "age": 15,
    "sex": "Female",
    "height": 65,
    "weight": 126,
    "hairColor": "Brown",
    "eyeColor": "Brown",
    "ethnicity": "White",
    "dateOfBirth": "2004-10-22",
    "nationality": "USA",
    "passportNumber": "141850502",
    "additionalId": "Drivers License",
    "additionalIdNumber": "26040411",
    "streetAddress": "9396 hillcrest rd",
    "city": "torrance",
    "state": "massachusetts",
    "postalCode": 64540,
    "countryCode": "+01",
    "phoneNumber": "926-300-1124"
    ,"hash": "496cdc9ac4c044349e63dd3fe7bac063",
    "creation_date": "2018-03-07T08:22:25Z",
    "unix_date": 1520428945,
    "ipfs": ""
,
    "isMissing": false
}