{
    "firstName": "Daniel",
    "lastName": "Meyer",
    "age": 31,
    "sex": "Male",
    "height": 70,
    "weight": 166,
    "hairColor": "Black",
    "eyeColor": "Brown",
    "ethnicity": "Middle Eastern",
    "dateOfBirth": "1988-09-27",
    "nationality": "USA",
    "passportNumber": "532575913",
    "additionalId": "Drivers License",
    "additionalIdNumber": "06067796",
    "streetAddress": "4309 country club rd",
    "city": "eureka",
    "state": "new jersey",
    "postalCode": 68749,
    "countryCode": "+01",
    "phoneNumber": "986-234-0091"
    ,"hash": "b034f490138a279f03ffc4f50280673e",
    "creation_date": "2018-03-05T01:28:28Z",
    "unix_date": 1520231308,
    "ipfs": ""
,
    "isMissing": false
}