{
    "firstName": "Stephen",
    "lastName": "Hayes",
    "age": 32,
    "sex": "Male",
    "height": 65,
    "weight": 186,
    "hairColor": "Black",
    "eyeColor": "Brown",
    "ethnicity": "Black",
    "dateOfBirth": "1986-07-15",
    "nationality": "USA",
    "passportNumber": "441151729",
    "additionalId": "Drivers License",
    "additionalIdNumber": "41767949",
    "streetAddress": "6642 forest ln",
    "city": "bernalillo",
    "state": "utah",
    "postalCode": 21125,
    "countryCode": "+01",
    "phoneNumber": "578-834-1859",
	"hash": "6b4898c96353578ee06b9898c983e77f",
    "creation_date": "2018-03-05T20:33:12Z",
    "unix_date": 1520299992,
    "ipfs": ""
,
    "isMissing": false
}