{
    "firstName": "Lisa",
    "lastName": "Watson",
    "age": 26,
    "sex": "Female",
    "height": 62,
    "weight": 106,
    "hairColor": "Brown (dyed Pink)",
    "eyeColor": "Blue",
    "ethnicity": "White",
    "dateOfBirth": "1993-09-24",
    "nationality": "USA",
    "passportNumber": "770148941",
    "additionalId": "Drivers License",
    "additionalIdNumber": "46728443",
    "streetAddress": "3389 karen dr",
    "city": "springfield",
    "state": "nebraska",
    "postalCode": 83432,
    "countryCode": "+01",
    "phoneNumber": "290-976-0982"
    ,"hash": "da860a6d596b2eb411fd1a2457ca4e64",
    "creation_date": "2018-03-04T01:04:01Z",
    "unix_date": 1520143441,
    "ipfs": ""
,
    "isMissing": false
}