{
    "firstName": "George",
    "lastName": "Lewis",
    "age": 32,
    "sex": "Male",
    "height": 71,
    "weight": 179,
    "hairColor": "Black",
    "eyeColor": "Brown",
    "ethnicity": "South Asian",
    "dateOfBirth": "1986-02-05",
    "nationality": "USA",
    "passportNumber": "010424831",
    "additionalId": "Drivers License",
    "additionalIdNumber": "92923818",
    "streetAddress": "8033 elgin st",
    "city": "elko",
    "state": "indiana",
    "postalCode": 39663,
    "countryCode": "+01",
    "phoneNumber": "131-215-3492",
	"hash": "54d4f6e8f8d8d864ff797ecf00a3db63",
    "creation_date": "2018-03-04T03:32:30Z",
    "unix_date": 1520152350,
    "ipfs": ""
,
    "isMissing": false
}